EESchema Schematic File Version 2
LIBS:OfficeMeter-rescue
LIBS:power
LIBS:device
LIBS:transistors
LIBS:conn
LIBS:linear
LIBS:regul
LIBS:74xx
LIBS:cmos4000
LIBS:adc-dac
LIBS:memory
LIBS:xilinx
LIBS:microcontrollers
LIBS:dsp
LIBS:microchip
LIBS:analog_switches
LIBS:motorola
LIBS:texas
LIBS:intel
LIBS:audio
LIBS:interface
LIBS:digital-audio
LIBS:philips
LIBS:display
LIBS:cypress
LIBS:siliconi
LIBS:opto
LIBS:atmel
LIBS:contrib
LIBS:valves
LIBS:rpi_gpio
LIBS:sensors
LIBS:OfficeMeter-cache
EELAYER 25 0
EELAYER END
$Descr A4 11693 8268
encoding utf-8
Sheet 1 1
Title ""
Date ""
Rev ""
Comp ""
Comment1 ""
Comment2 ""
Comment3 ""
Comment4 ""
$EndDescr
$Comp
L RPi_GPIO-RESCUE-OfficeMeter J1
U 1 1 56474238
P 3100 1400
F 0 "J1" H 3950 -700 60  0000 C CNN
F 1 "RPi_GPIO" H 3850 1550 60  0000 C CNN
F 2 "Socket_Strips:Socket_Strip_Straight_2x20" H 3900 -850 60  0000 C BNN
F 3 "" H 3100 1400 60  0000 C CNN
	1    3100 1400
	-1   0    0    -1  
$EndComp
$Comp
L DHT22-RESCUE-OfficeMeter J2
U 1 1 5647499A
P 5150 1550
F 0 "J2" H 5150 1250 60  0000 C CNN
F 1 "DHT22" H 5150 1800 60  0000 C CNN
F 2 "sensors:DHT22" H 5100 1900 60  0000 C CNN
F 3 "" H 5150 1800 60  0000 C CNN
	1    5150 1550
	-1   0    0    -1  
$EndComp
$Comp
L R R1
U 1 1 56474FED
P 4100 1550
F 0 "R1" V 4180 1550 50  0000 C CNN
F 1 "10k" V 4100 1550 50  0000 C CNN
F 2 "Resistors_SMD:R_0805_HandSoldering" H 4100 1750 30  0000 C CNN
F 3 "" H 4100 1550 30  0000 C CNN
	1    4100 1550
	1    0    0    -1  
$EndComp
NoConn ~ 4800 1600
$Comp
L K30 U3
U 1 1 564777E1
P 4600 2600
F 0 "U3" H 4750 2100 60  0000 C CNN
F 1 "K30" H 4600 2850 60  0000 C CNN
F 2 "Socket_Strips:Socket_Strip_Straight_1x05" H 4600 2950 60  0000 C CNN
F 3 "" H 4550 2600 60  0000 C CNN
	1    4600 2600
	1    0    0    -1  
$EndComp
$Comp
L GND #PWR01
U 1 1 5647783C
P 4600 3200
F 0 "#PWR01" H 4600 2950 50  0001 C CNN
F 1 "GND" H 4600 3050 50  0000 C CNN
F 2 "" H 4600 3200 60  0000 C CNN
F 3 "" H 4600 3200 60  0000 C CNN
	1    4600 3200
	1    0    0    -1  
$EndComp
$Comp
L +5V #PWR02
U 1 1 564778E0
P 4100 2550
F 0 "#PWR02" H 4100 2400 50  0001 C CNN
F 1 "+5V" H 4100 2690 50  0000 C CNN
F 2 "" H 4100 2550 60  0000 C CNN
F 3 "" H 4100 2550 60  0000 C CNN
	1    4100 2550
	1    0    0    -1  
$EndComp
$Comp
L +5V #PWR03
U 1 1 56477A98
P 1200 1200
F 0 "#PWR03" H 1200 1050 50  0001 C CNN
F 1 "+5V" H 1200 1340 50  0000 C CNN
F 2 "" H 1200 1200 60  0000 C CNN
F 3 "" H 1200 1200 60  0000 C CNN
	1    1200 1200
	1    0    0    -1  
$EndComp
NoConn ~ 4250 2450
NoConn ~ 3300 1900
NoConn ~ 3300 2000
NoConn ~ 3300 2100
NoConn ~ 3300 2200
NoConn ~ 3300 2300
NoConn ~ 3300 2400
NoConn ~ 3300 2500
NoConn ~ 3300 2600
NoConn ~ 3300 2700
NoConn ~ 3300 3100
NoConn ~ 3300 3000
NoConn ~ 3300 2900
NoConn ~ 3300 2800
NoConn ~ 1400 1700
NoConn ~ 1400 1800
NoConn ~ 1400 1900
NoConn ~ 1400 2000
NoConn ~ 1400 2100
NoConn ~ 1400 2200
NoConn ~ 1400 2300
NoConn ~ 1400 2400
NoConn ~ 1400 2500
NoConn ~ 1400 2600
NoConn ~ 1400 3300
NoConn ~ 1400 3200
NoConn ~ 1400 3100
NoConn ~ 1400 3000
NoConn ~ 1400 2800
NoConn ~ 1400 2700
NoConn ~ 1400 2900
NoConn ~ 4200 3750
$Comp
L +5V #PWR04
U 1 1 564786BE
P 4050 3600
F 0 "#PWR04" H 4050 3450 50  0001 C CNN
F 1 "+5V" H 4050 3740 50  0000 C CNN
F 2 "" H 4050 3600 60  0000 C CNN
F 3 "" H 4050 3600 60  0000 C CNN
	1    4050 3600
	1    0    0    -1  
$EndComp
NoConn ~ 1400 1600
$Comp
L LED D1
U 1 1 5651D497
P 2550 750
F 0 "D1" H 2550 850 50  0000 C CNN
F 1 "LED" H 2550 650 50  0000 C CNN
F 2 "Resistors_SMD:R_0805_HandSoldering" H 2550 750 60  0001 C CNN
F 3 "" H 2550 750 60  0000 C CNN
	1    2550 750 
	-1   0    0    1   
$EndComp
$Comp
L GND #PWR05
U 1 1 5651D4E9
P 2850 800
F 0 "#PWR05" H 2850 550 50  0001 C CNN
F 1 "GND" H 2850 650 50  0000 C CNN
F 2 "" H 2850 800 60  0000 C CNN
F 3 "" H 2850 800 60  0000 C CNN
	1    2850 800 
	1    0    0    -1  
$EndComp
$Comp
L R R2
U 1 1 5651D5BB
P 2100 750
F 0 "R2" V 2180 750 50  0000 C CNN
F 1 "1K" V 2100 750 50  0000 C CNN
F 2 "Resistors_SMD:R_0805_HandSoldering" V 2030 750 30  0000 C CNN
F 3 "" H 2100 750 30  0000 C CNN
	1    2100 750 
	0    1    1    0   
$EndComp
$Comp
L +5V #PWR06
U 1 1 5651D618
P 1800 750
F 0 "#PWR06" H 1800 600 50  0001 C CNN
F 1 "+5V" H 1800 890 50  0000 C CNN
F 2 "" H 1800 750 60  0000 C CNN
F 3 "" H 1800 750 60  0000 C CNN
	1    1800 750 
	1    0    0    -1  
$EndComp
$Comp
L BMP180 U1
U 1 1 569C9EBD
P 4550 3900
F 0 "U1" H 4700 3500 60  0000 C CNN
F 1 "BMP180" H 4550 4250 60  0000 C CNN
F 2 "sensors:BMP180" H 4400 3900 60  0000 C CNN
F 3 "" H 4400 3900 60  0000 C CNN
	1    4550 3900
	1    0    0    -1  
$EndComp
$Comp
L K-037 U4
U 1 1 569CB529
P 4500 5300
F 0 "U4" H 4750 5450 60  0000 C CNN
F 1 "K37" H 4500 5550 60  0000 C CNN
F 2 "sensors:K37" H 4600 5700 60  0000 C CNN
F 3 "" H 4500 5300 60  0000 C CNN
	1    4500 5300
	1    0    0    -1  
$EndComp
$Comp
L +5V #PWR07
U 1 1 569CB5ED
P 4000 5300
F 0 "#PWR07" H 4000 5150 50  0001 C CNN
F 1 "+5V" H 4000 5440 50  0000 C CNN
F 2 "" H 4000 5300 50  0000 C CNN
F 3 "" H 4000 5300 50  0000 C CNN
	1    4000 5300
	1    0    0    -1  
$EndComp
$Comp
L GND #PWR?
U 1 1 569CB5A1
P 4550 5800
F 0 "#PWR?" H 4550 5550 50  0001 C CNN
F 1 "GND" H 4550 5650 50  0000 C CNN
F 2 "" H 4550 5800 50  0000 C CNN
F 3 "" H 4550 5800 50  0000 C CNN
	1    4550 5800
	1    0    0    -1  
$EndComp
$Comp
L GND #PWR06
U 1 1 56478737
P 4550 4500
F 0 "#PWR06" H 4550 4250 50  0001 C CNN
F 1 "GND" H 4550 4350 50  0000 C CNN
F 2 "" H 4550 4500 60  0000 C CNN
F 3 "" H 4550 4500 60  0000 C CNN
	1    4550 4500
	1    0    0    -1  
$EndComp
$Comp
L GND #PWR01
U 1 1 56474AB5
P 4700 1800
F 0 "#PWR01" H 4700 1550 50  0001 C CNN
F 1 "GND" H 4700 1650 50  0000 C CNN
F 2 "" H 4700 1800 60  0000 C CNN
F 3 "" H 4700 1800 60  0000 C CNN
	1    4700 1800
	1    0    0    -1  
$EndComp
$Comp
L GND #PWR010
U 1 1 56740C9E
P 3400 3400
F 0 "#PWR010" H 3400 3150 50  0001 C CNN
F 1 "GND" H 3400 3250 50  0000 C CNN
F 2 "" H 3400 3400 50  0000 C CNN
F 3 "" H 3400 3400 50  0000 C CNN
	1    3400 3400
	1    0    0    -1  
$EndComp
$Comp
L GND #PWR07
U 1 1 56478C3C
P 3500 1800
F 0 "#PWR07" H 3500 1550 50  0001 C CNN
F 1 "GND" H 3500 1650 50  0000 C CNN
F 2 "" H 3500 1800 60  0000 C CNN
F 3 "" H 3500 1800 60  0000 C CNN
	1    3500 1800
	1    0    0    -1  
$EndComp
Wire Wire Line
	4800 1700 4700 1700
Wire Wire Line
	4700 1700 4700 1800
Wire Wire Line
	4800 1500 4400 1500
Wire Wire Line
	3300 1700 4400 1700
Wire Wire Line
	4400 1700 4400 1500
Wire Wire Line
	3300 1500 3600 1500
Wire Wire Line
	3700 1600 3700 3850
Wire Wire Line
	3700 1600 3300 1600
Wire Wire Line
	4250 2550 4100 2550
Wire Wire Line
	3600 2750 4250 2750
Wire Wire Line
	4250 2650 3700 2650
Connection ~ 4100 1700
Connection ~ 4700 1800
Wire Wire Line
	3300 1400 4800 1400
Connection ~ 4100 1400
Wire Wire Line
	4050 3600 4050 3650
Wire Wire Line
	4050 3650 4200 3650
Wire Wire Line
	3700 3850 4200 3850
Connection ~ 3700 2650
Wire Wire Line
	3600 3950 4200 3950
Connection ~ 3600 2750
Wire Wire Line
	4550 4400 4550 4500
Wire Wire Line
	3300 1800 3500 1800
Wire Wire Line
	1200 1200 1200 1500
Connection ~ 1200 1400
Connection ~ 3450 1400
Wire Wire Line
	1800 750  1950 750 
Wire Wire Line
	2250 750  2350 750 
Wire Wire Line
	2750 750  2850 750 
Wire Wire Line
	2850 750  2850 800 
Wire Wire Line
	3300 3300 3400 3300
Wire Wire Line
	3400 3300 3400 3400
Wire Wire Line
	1200 1500 1400 1500
Wire Wire Line
	3600 1500 3600 3950
Wire Wire Line
	1200 1400 1400 1400
Wire Wire Line
	4000 5300 4200 5300
Wire Wire Line
	3300 3200 3500 3200
Wire Wire Line
	3500 3200 3500 5400
Wire Wire Line
	3500 5400 4200 5400
$EndSCHEMATC
