G04 #@! TF.FileFunction,Copper,L1,Top*
%FSLAX46Y46*%
G04 Gerber Fmt 4.6, Leading zero omitted, Abs format (unit mm)*
G04 Created by KiCad (PCBNEW 4.0.1-3.201512221402+6198~38~ubuntu14.04.1-stable) date Чт. 21 янв. 2016 23:35:48*
%MOMM*%
G01*
G04 APERTURE LIST*
%ADD10C,0.100000*%
%ADD11C,0.375000*%
%ADD12R,2.540000X1.727200*%
%ADD13O,2.540000X1.600000*%
%ADD14R,1.727200X2.032000*%
%ADD15O,1.727200X2.032000*%
%ADD16R,2.032000X1.727200*%
%ADD17O,2.032000X1.727200*%
%ADD18R,1.727200X1.727200*%
%ADD19O,1.700000X1.700000*%
%ADD20R,1.300000X1.500000*%
%ADD21C,1.998980*%
%ADD22C,4.000000*%
%ADD23C,0.250000*%
%ADD24C,0.400000*%
%ADD25C,0.300000*%
%ADD26C,0.254000*%
G04 APERTURE END LIST*
D10*
X32500000Y-32000000D02*
X32500000Y-88000000D01*
X97500000Y-88000000D02*
X32500000Y-88000000D01*
X97500000Y-32000000D02*
X97500000Y-88000000D01*
X32500000Y-32000000D02*
X97500000Y-32000000D01*
D11*
X35702762Y-78024953D02*
X34369429Y-78024953D01*
X34750381Y-78024953D02*
X34559905Y-77929714D01*
X34464667Y-77834476D01*
X34369429Y-77644000D01*
X34369429Y-77453524D01*
X35607524Y-76024953D02*
X35702762Y-76215429D01*
X35702762Y-76596381D01*
X35607524Y-76786858D01*
X35417048Y-76882096D01*
X34655143Y-76882096D01*
X34464667Y-76786858D01*
X34369429Y-76596381D01*
X34369429Y-76215429D01*
X34464667Y-76024953D01*
X34655143Y-75929715D01*
X34845619Y-75929715D01*
X35036095Y-76882096D01*
X34369429Y-75263048D02*
X35702762Y-74786857D01*
X34369429Y-74310667D01*
X35512286Y-73548762D02*
X35607524Y-73453523D01*
X35702762Y-73548762D01*
X35607524Y-73644000D01*
X35512286Y-73548762D01*
X35702762Y-73548762D01*
X35702762Y-70024951D02*
X35702762Y-71167809D01*
X35702762Y-70596380D02*
X33702762Y-70596380D01*
X33988476Y-70786856D01*
X34178952Y-70977332D01*
X34274190Y-71167809D01*
X35512286Y-69167809D02*
X35607524Y-69072570D01*
X35702762Y-69167809D01*
X35607524Y-69263047D01*
X35512286Y-69167809D01*
X35702762Y-69167809D01*
X33702762Y-68405904D02*
X33702762Y-67167808D01*
X34464667Y-67834475D01*
X34464667Y-67548761D01*
X34559905Y-67358285D01*
X34655143Y-67263047D01*
X34845619Y-67167808D01*
X35321810Y-67167808D01*
X35512286Y-67263047D01*
X35607524Y-67358285D01*
X35702762Y-67548761D01*
X35702762Y-68120189D01*
X35607524Y-68310666D01*
X35512286Y-68405904D01*
D12*
X39370000Y-44450000D03*
D13*
X39370000Y-46990000D03*
X39370000Y-49530000D03*
X39370000Y-52070000D03*
D14*
X48260000Y-77470000D03*
D15*
X45720000Y-77470000D03*
X43180000Y-77470000D03*
X40640000Y-77470000D03*
X38100000Y-77470000D03*
D16*
X94960000Y-41530000D03*
D17*
X94960000Y-44070000D03*
X94960000Y-46610000D03*
X94960000Y-49150000D03*
X94960000Y-51690000D03*
D18*
X40900000Y-37000000D03*
D19*
X40900000Y-34460000D03*
X43440000Y-37000000D03*
X43440000Y-34460000D03*
X45980000Y-37000000D03*
X45980000Y-34460000D03*
X48520000Y-37000000D03*
X48520000Y-34460000D03*
X51060000Y-37000000D03*
X51060000Y-34460000D03*
X53600000Y-37000000D03*
X53600000Y-34460000D03*
X56140000Y-37000000D03*
X56140000Y-34460000D03*
X58680000Y-37000000D03*
X58680000Y-34460000D03*
X61220000Y-37000000D03*
X61220000Y-34460000D03*
X63760000Y-37000000D03*
X63760000Y-34460000D03*
X66300000Y-37000000D03*
X66300000Y-34460000D03*
X68840000Y-37000000D03*
X68840000Y-34460000D03*
X71380000Y-37000000D03*
X71380000Y-34460000D03*
X73920000Y-37000000D03*
X73920000Y-34460000D03*
X76460000Y-37000000D03*
X76460000Y-34460000D03*
X79000000Y-37000000D03*
X79000000Y-34460000D03*
X81540000Y-37000000D03*
X81540000Y-34460000D03*
X84080000Y-37000000D03*
X84080000Y-34460000D03*
X86620000Y-37000000D03*
X86620000Y-34460000D03*
X89160000Y-37000000D03*
X89160000Y-34460000D03*
D20*
X36250000Y-59400000D03*
X36250000Y-62100000D03*
X46500000Y-44150000D03*
X46500000Y-46850000D03*
X39750000Y-62100000D03*
X39750000Y-59400000D03*
D21*
X76481500Y-42041200D03*
X79656500Y-42041200D03*
X83466500Y-42041200D03*
X86641500Y-42041200D03*
D22*
X36012000Y-35496000D03*
X49900000Y-84900000D03*
X94012000Y-35496000D03*
X94012000Y-84496000D03*
X36012000Y-84496000D03*
D23*
X40261000Y-44300000D02*
X39370000Y-44450000D01*
X40386000Y-44300000D02*
X40261000Y-44300000D01*
D24*
X45850000Y-44300000D02*
X40386000Y-44300000D01*
D23*
X45975000Y-44300000D02*
X45850000Y-44300000D01*
X46500000Y-44150000D02*
X45975000Y-44300000D01*
D25*
X44666800Y-35730700D02*
X43440000Y-37000000D01*
X94807600Y-51690000D02*
X50330000Y-38449200D01*
X50330000Y-38449200D02*
X49784000Y-37846000D01*
X49784000Y-37846000D02*
X49784000Y-36195000D01*
X49784000Y-36195000D02*
X49386300Y-35739100D01*
X49386300Y-35739100D02*
X46503900Y-35730000D01*
X46503900Y-35730000D02*
X44666800Y-35730700D01*
X94960000Y-51690000D02*
X94807600Y-51690000D01*
X39217600Y-52070000D02*
X39370000Y-52070000D01*
X36775000Y-58598200D02*
X39217600Y-52070000D01*
X36775000Y-58650000D02*
X36775000Y-58598200D01*
X36775000Y-58775000D02*
X36775000Y-58650000D01*
X36250000Y-59400000D02*
X36775000Y-58775000D01*
X45720000Y-77317600D02*
X34798000Y-63373000D01*
X34798000Y-60706000D02*
X35941000Y-59817000D01*
X34798000Y-63373000D02*
X34798000Y-60706000D01*
X45720000Y-77470000D02*
X45720000Y-77317600D01*
D24*
X48133000Y-45466000D02*
X48520000Y-37000000D01*
X47117000Y-46228000D02*
X47117000Y-46176200D01*
X47117000Y-46176200D02*
X48133000Y-45466000D01*
D23*
X47117000Y-46353000D02*
X47117000Y-46228000D01*
X46500000Y-46850000D02*
X47117000Y-46353000D01*
X45975000Y-46990000D02*
X46500000Y-46850000D01*
X45850000Y-46990000D02*
X45975000Y-46990000D01*
D24*
X39522400Y-46990000D02*
X45850000Y-46990000D01*
D23*
X39370000Y-46990000D02*
X39522400Y-46990000D01*
D25*
X91058200Y-45281900D02*
X95027300Y-46725100D01*
X91084700Y-41970700D02*
X91058200Y-45281900D01*
X43440000Y-34460000D02*
X44958000Y-33147000D01*
X44958000Y-33147000D02*
X46736000Y-33147000D01*
X46736000Y-33147000D02*
X90084100Y-33159600D01*
X90084100Y-33159600D02*
X91056900Y-34049100D01*
X91056900Y-34049100D02*
X91084700Y-41970700D01*
X85056900Y-44092900D02*
X91058200Y-45281900D01*
X83466500Y-42041200D02*
X85056900Y-44092900D01*
X47521400Y-76402200D02*
X41387000Y-59370500D01*
X47521400Y-76454000D02*
X47521400Y-76402200D01*
X47521400Y-76579000D02*
X47521400Y-76454000D01*
X48260000Y-77470000D02*
X47521400Y-76579000D01*
X39116000Y-35560000D02*
X40900000Y-34460000D01*
X41387000Y-59370500D02*
X41402000Y-51435000D01*
X41402000Y-51435000D02*
X40767000Y-50800000D01*
X40767000Y-50800000D02*
X38227000Y-50800000D01*
X38227000Y-50800000D02*
X37592000Y-50165000D01*
X37592000Y-50165000D02*
X37592000Y-42926000D01*
X37592000Y-42926000D02*
X39116000Y-35560000D01*
X39750000Y-59400000D02*
X41387000Y-59370500D01*
D23*
X36775000Y-62100000D02*
X36250000Y-62100000D01*
X36900000Y-62100000D02*
X36775000Y-62100000D01*
D25*
X39100000Y-62100000D02*
X36900000Y-62100000D01*
D23*
X39225000Y-62100000D02*
X39100000Y-62100000D01*
X39750000Y-62100000D02*
X39225000Y-62100000D01*
D25*
X86641500Y-42041200D02*
X86620000Y-37000000D01*
D26*
G36*
X33529164Y-86151846D02*
X34351823Y-86975943D01*
X34465149Y-87023000D01*
X33477000Y-87023000D01*
X33477000Y-86025600D01*
X33529164Y-86151846D01*
X33529164Y-86151846D01*
G37*
X33529164Y-86151846D02*
X34351823Y-86975943D01*
X34465149Y-87023000D01*
X33477000Y-87023000D01*
X33477000Y-86025600D01*
X33529164Y-86151846D01*
G36*
X49598126Y-39221412D02*
X49651082Y-39285262D01*
X49765252Y-39345528D01*
X49868895Y-39422499D01*
X49949349Y-39442707D01*
X50022709Y-39481431D01*
X93101422Y-52305788D01*
X93115235Y-52375233D01*
X93503389Y-52956145D01*
X94084301Y-53344299D01*
X94769534Y-53480600D01*
X95150466Y-53480600D01*
X95835699Y-53344299D01*
X96416611Y-52956145D01*
X96523000Y-52796923D01*
X96523000Y-82908316D01*
X96494836Y-82840154D01*
X95672177Y-82016057D01*
X94596771Y-81569510D01*
X93432338Y-81568493D01*
X92356154Y-82013164D01*
X91532057Y-82835823D01*
X91085510Y-83911229D01*
X91084493Y-85075662D01*
X91529164Y-86151846D01*
X92351823Y-86975943D01*
X92465149Y-87023000D01*
X51916311Y-87023000D01*
X52379943Y-86560177D01*
X52826490Y-85484771D01*
X52827507Y-84320338D01*
X52382836Y-83244154D01*
X51560177Y-82420057D01*
X50484771Y-81973510D01*
X49320338Y-81972493D01*
X48244154Y-82417164D01*
X47420057Y-83239823D01*
X46973510Y-84315229D01*
X46972493Y-85479662D01*
X47417164Y-86555846D01*
X47883503Y-87023000D01*
X37560961Y-87023000D01*
X37667846Y-86978836D01*
X38491943Y-86156177D01*
X38938490Y-85080771D01*
X38939507Y-83916338D01*
X38494836Y-82840154D01*
X37672177Y-82016057D01*
X36596771Y-81569510D01*
X35432338Y-81568493D01*
X34356154Y-82013164D01*
X33532057Y-82835823D01*
X33477000Y-82968415D01*
X33477000Y-79615643D01*
X37312500Y-79615643D01*
X37312500Y-79246432D01*
X37414767Y-79314765D01*
X38100000Y-79451066D01*
X38785233Y-79314765D01*
X39366145Y-78926611D01*
X39370000Y-78920842D01*
X39373855Y-78926611D01*
X39954767Y-79314765D01*
X40640000Y-79451066D01*
X41325233Y-79314765D01*
X41906145Y-78926611D01*
X41910000Y-78920842D01*
X41913855Y-78926611D01*
X42494767Y-79314765D01*
X43180000Y-79451066D01*
X43865233Y-79314765D01*
X44446145Y-78926611D01*
X44450000Y-78920842D01*
X44453855Y-78926611D01*
X45034767Y-79314765D01*
X45720000Y-79451066D01*
X46405233Y-79314765D01*
X46700966Y-79117162D01*
X46718901Y-79145033D01*
X47028679Y-79356696D01*
X47396400Y-79431161D01*
X49123600Y-79431161D01*
X49467126Y-79366522D01*
X49782633Y-79163499D01*
X49994296Y-78853721D01*
X50068761Y-78486000D01*
X50068761Y-76454000D01*
X50004122Y-76110474D01*
X49801099Y-75794967D01*
X49491321Y-75583304D01*
X49123600Y-75508839D01*
X48344361Y-75508839D01*
X42464355Y-59183445D01*
X42478998Y-51437036D01*
X42478798Y-51436018D01*
X42479000Y-51435000D01*
X42438179Y-51229779D01*
X42397795Y-51024732D01*
X42397221Y-51023869D01*
X42397018Y-51022850D01*
X42280740Y-50848827D01*
X42164992Y-50674887D01*
X42164131Y-50674309D01*
X42163554Y-50673446D01*
X41528554Y-50038446D01*
X41511211Y-50026858D01*
X41610042Y-49530000D01*
X41478582Y-48869106D01*
X41104215Y-48308827D01*
X41031140Y-48260000D01*
X41104215Y-48211173D01*
X41167139Y-48117000D01*
X45081105Y-48117000D01*
X45172501Y-48259033D01*
X45482279Y-48470696D01*
X45850000Y-48545161D01*
X47150000Y-48545161D01*
X47493526Y-48480522D01*
X47809033Y-48277499D01*
X48020696Y-47967721D01*
X48095161Y-47600000D01*
X48095161Y-46867493D01*
X48778682Y-46389701D01*
X48829652Y-46336542D01*
X48892687Y-46298468D01*
X48980509Y-46179207D01*
X49083017Y-46072297D01*
X49109764Y-46003681D01*
X49153431Y-45944381D01*
X49188929Y-45800587D01*
X49242721Y-45662589D01*
X49241173Y-45588962D01*
X49258824Y-45517464D01*
X49548322Y-39184425D01*
X49598126Y-39221412D01*
X49598126Y-39221412D01*
G37*
X49598126Y-39221412D02*
X49651082Y-39285262D01*
X49765252Y-39345528D01*
X49868895Y-39422499D01*
X49949349Y-39442707D01*
X50022709Y-39481431D01*
X93101422Y-52305788D01*
X93115235Y-52375233D01*
X93503389Y-52956145D01*
X94084301Y-53344299D01*
X94769534Y-53480600D01*
X95150466Y-53480600D01*
X95835699Y-53344299D01*
X96416611Y-52956145D01*
X96523000Y-52796923D01*
X96523000Y-82908316D01*
X96494836Y-82840154D01*
X95672177Y-82016057D01*
X94596771Y-81569510D01*
X93432338Y-81568493D01*
X92356154Y-82013164D01*
X91532057Y-82835823D01*
X91085510Y-83911229D01*
X91084493Y-85075662D01*
X91529164Y-86151846D01*
X92351823Y-86975943D01*
X92465149Y-87023000D01*
X51916311Y-87023000D01*
X52379943Y-86560177D01*
X52826490Y-85484771D01*
X52827507Y-84320338D01*
X52382836Y-83244154D01*
X51560177Y-82420057D01*
X50484771Y-81973510D01*
X49320338Y-81972493D01*
X48244154Y-82417164D01*
X47420057Y-83239823D01*
X46973510Y-84315229D01*
X46972493Y-85479662D01*
X47417164Y-86555846D01*
X47883503Y-87023000D01*
X37560961Y-87023000D01*
X37667846Y-86978836D01*
X38491943Y-86156177D01*
X38938490Y-85080771D01*
X38939507Y-83916338D01*
X38494836Y-82840154D01*
X37672177Y-82016057D01*
X36596771Y-81569510D01*
X35432338Y-81568493D01*
X34356154Y-82013164D01*
X33532057Y-82835823D01*
X33477000Y-82968415D01*
X33477000Y-79615643D01*
X37312500Y-79615643D01*
X37312500Y-79246432D01*
X37414767Y-79314765D01*
X38100000Y-79451066D01*
X38785233Y-79314765D01*
X39366145Y-78926611D01*
X39370000Y-78920842D01*
X39373855Y-78926611D01*
X39954767Y-79314765D01*
X40640000Y-79451066D01*
X41325233Y-79314765D01*
X41906145Y-78926611D01*
X41910000Y-78920842D01*
X41913855Y-78926611D01*
X42494767Y-79314765D01*
X43180000Y-79451066D01*
X43865233Y-79314765D01*
X44446145Y-78926611D01*
X44450000Y-78920842D01*
X44453855Y-78926611D01*
X45034767Y-79314765D01*
X45720000Y-79451066D01*
X46405233Y-79314765D01*
X46700966Y-79117162D01*
X46718901Y-79145033D01*
X47028679Y-79356696D01*
X47396400Y-79431161D01*
X49123600Y-79431161D01*
X49467126Y-79366522D01*
X49782633Y-79163499D01*
X49994296Y-78853721D01*
X50068761Y-78486000D01*
X50068761Y-76454000D01*
X50004122Y-76110474D01*
X49801099Y-75794967D01*
X49491321Y-75583304D01*
X49123600Y-75508839D01*
X48344361Y-75508839D01*
X42464355Y-59183445D01*
X42478998Y-51437036D01*
X42478798Y-51436018D01*
X42479000Y-51435000D01*
X42438179Y-51229779D01*
X42397795Y-51024732D01*
X42397221Y-51023869D01*
X42397018Y-51022850D01*
X42280740Y-50848827D01*
X42164992Y-50674887D01*
X42164131Y-50674309D01*
X42163554Y-50673446D01*
X41528554Y-50038446D01*
X41511211Y-50026858D01*
X41610042Y-49530000D01*
X41478582Y-48869106D01*
X41104215Y-48308827D01*
X41031140Y-48260000D01*
X41104215Y-48211173D01*
X41167139Y-48117000D01*
X45081105Y-48117000D01*
X45172501Y-48259033D01*
X45482279Y-48470696D01*
X45850000Y-48545161D01*
X47150000Y-48545161D01*
X47493526Y-48480522D01*
X47809033Y-48277499D01*
X48020696Y-47967721D01*
X48095161Y-47600000D01*
X48095161Y-46867493D01*
X48778682Y-46389701D01*
X48829652Y-46336542D01*
X48892687Y-46298468D01*
X48980509Y-46179207D01*
X49083017Y-46072297D01*
X49109764Y-46003681D01*
X49153431Y-45944381D01*
X49188929Y-45800587D01*
X49242721Y-45662589D01*
X49241173Y-45588962D01*
X49258824Y-45517464D01*
X49548322Y-39184425D01*
X49598126Y-39221412D01*
G36*
X96523000Y-87023000D02*
X95560961Y-87023000D01*
X95667846Y-86978836D01*
X96491943Y-86156177D01*
X96523000Y-86081383D01*
X96523000Y-87023000D01*
X96523000Y-87023000D01*
G37*
X96523000Y-87023000D02*
X95560961Y-87023000D01*
X95667846Y-86978836D01*
X96491943Y-86156177D01*
X96523000Y-86081383D01*
X96523000Y-87023000D01*
G36*
X42954771Y-75533735D02*
X42494767Y-75625235D01*
X41913855Y-76013389D01*
X41910000Y-76019158D01*
X41906145Y-76013389D01*
X41325233Y-75625235D01*
X40640000Y-75488934D01*
X39954767Y-75625235D01*
X39373855Y-76013389D01*
X39370000Y-76019158D01*
X39366145Y-76013389D01*
X38785233Y-75625235D01*
X38100000Y-75488934D01*
X37414767Y-75625235D01*
X37312500Y-75693568D01*
X37312500Y-68329999D01*
X42954771Y-75533735D01*
X42954771Y-75533735D01*
G37*
X42954771Y-75533735D02*
X42494767Y-75625235D01*
X41913855Y-76013389D01*
X41910000Y-76019158D01*
X41906145Y-76013389D01*
X41325233Y-75625235D01*
X40640000Y-75488934D01*
X39954767Y-75625235D01*
X39373855Y-76013389D01*
X39370000Y-76019158D01*
X39366145Y-76013389D01*
X38785233Y-75625235D01*
X38100000Y-75488934D01*
X37414767Y-75625235D01*
X37312500Y-75693568D01*
X37312500Y-68329999D01*
X42954771Y-75533735D01*
G36*
X46073028Y-75559156D02*
X45720000Y-75488934D01*
X45664404Y-75499993D01*
X36496685Y-63795161D01*
X36900000Y-63795161D01*
X37243526Y-63730522D01*
X37559033Y-63527499D01*
X37770696Y-63217721D01*
X37778942Y-63177000D01*
X38216368Y-63177000D01*
X38219478Y-63193526D01*
X38422501Y-63509033D01*
X38732279Y-63720696D01*
X39100000Y-63795161D01*
X40400000Y-63795161D01*
X40743526Y-63730522D01*
X41059033Y-63527499D01*
X41270696Y-63217721D01*
X41345161Y-62850000D01*
X41345161Y-62432588D01*
X46073028Y-75559156D01*
X46073028Y-75559156D01*
G37*
X46073028Y-75559156D02*
X45720000Y-75488934D01*
X45664404Y-75499993D01*
X36496685Y-63795161D01*
X36900000Y-63795161D01*
X37243526Y-63730522D01*
X37559033Y-63527499D01*
X37770696Y-63217721D01*
X37778942Y-63177000D01*
X38216368Y-63177000D01*
X38219478Y-63193526D01*
X38422501Y-63509033D01*
X38732279Y-63720696D01*
X39100000Y-63795161D01*
X40400000Y-63795161D01*
X40743526Y-63730522D01*
X41059033Y-63527499D01*
X41270696Y-63217721D01*
X41345161Y-62850000D01*
X41345161Y-62432588D01*
X46073028Y-75559156D01*
G36*
X33529164Y-37151846D02*
X34351823Y-37975943D01*
X35427229Y-38422490D01*
X36591662Y-38423507D01*
X37501523Y-38047559D01*
X36537337Y-42707794D01*
X36536492Y-42817952D01*
X36515000Y-42926000D01*
X36515000Y-50165000D01*
X36596982Y-50577150D01*
X36830446Y-50926554D01*
X37282078Y-51378186D01*
X37261418Y-51409106D01*
X37129958Y-52070000D01*
X37261418Y-52730894D01*
X37619746Y-53267169D01*
X35959342Y-57704839D01*
X35600000Y-57704839D01*
X35256474Y-57769478D01*
X34940967Y-57972501D01*
X34729304Y-58282279D01*
X34654839Y-58650000D01*
X34654839Y-59452938D01*
X34136786Y-59855868D01*
X34092595Y-59906928D01*
X34036446Y-59944446D01*
X33956248Y-60064471D01*
X33861787Y-60173616D01*
X33840500Y-60237700D01*
X33802982Y-60293850D01*
X33774820Y-60435428D01*
X33729317Y-60572415D01*
X33734174Y-60639768D01*
X33721000Y-60706000D01*
X33721000Y-63373000D01*
X33749512Y-63516339D01*
X33760520Y-63662075D01*
X33790164Y-63720711D01*
X33802982Y-63785150D01*
X33884178Y-63906668D01*
X33950118Y-64037097D01*
X35230922Y-65672356D01*
X33477000Y-65672356D01*
X33477000Y-37025600D01*
X33529164Y-37151846D01*
X33529164Y-37151846D01*
G37*
X33529164Y-37151846D02*
X34351823Y-37975943D01*
X35427229Y-38422490D01*
X36591662Y-38423507D01*
X37501523Y-38047559D01*
X36537337Y-42707794D01*
X36536492Y-42817952D01*
X36515000Y-42926000D01*
X36515000Y-50165000D01*
X36596982Y-50577150D01*
X36830446Y-50926554D01*
X37282078Y-51378186D01*
X37261418Y-51409106D01*
X37129958Y-52070000D01*
X37261418Y-52730894D01*
X37619746Y-53267169D01*
X35959342Y-57704839D01*
X35600000Y-57704839D01*
X35256474Y-57769478D01*
X34940967Y-57972501D01*
X34729304Y-58282279D01*
X34654839Y-58650000D01*
X34654839Y-59452938D01*
X34136786Y-59855868D01*
X34092595Y-59906928D01*
X34036446Y-59944446D01*
X33956248Y-60064471D01*
X33861787Y-60173616D01*
X33840500Y-60237700D01*
X33802982Y-60293850D01*
X33774820Y-60435428D01*
X33729317Y-60572415D01*
X33734174Y-60639768D01*
X33721000Y-60706000D01*
X33721000Y-63373000D01*
X33749512Y-63516339D01*
X33760520Y-63662075D01*
X33790164Y-63720711D01*
X33802982Y-63785150D01*
X33884178Y-63906668D01*
X33950118Y-64037097D01*
X35230922Y-65672356D01*
X33477000Y-65672356D01*
X33477000Y-37025600D01*
X33529164Y-37151846D01*
G36*
X40313147Y-57704839D02*
X39100000Y-57704839D01*
X38756474Y-57769478D01*
X38440967Y-57972501D01*
X38229304Y-58282279D01*
X38154839Y-58650000D01*
X38154839Y-60150000D01*
X38219478Y-60493526D01*
X38386212Y-60752638D01*
X38229304Y-60982279D01*
X38221058Y-61023000D01*
X37783632Y-61023000D01*
X37780522Y-61006474D01*
X37613788Y-60747362D01*
X37770696Y-60517721D01*
X37845161Y-60150000D01*
X37845161Y-58811365D01*
X39721343Y-53797000D01*
X39883042Y-53797000D01*
X40320698Y-53709945D01*
X40313147Y-57704839D01*
X40313147Y-57704839D01*
G37*
X40313147Y-57704839D02*
X39100000Y-57704839D01*
X38756474Y-57769478D01*
X38440967Y-57972501D01*
X38229304Y-58282279D01*
X38154839Y-58650000D01*
X38154839Y-60150000D01*
X38219478Y-60493526D01*
X38386212Y-60752638D01*
X38229304Y-60982279D01*
X38221058Y-61023000D01*
X37783632Y-61023000D01*
X37780522Y-61006474D01*
X37613788Y-60747362D01*
X37770696Y-60517721D01*
X37845161Y-60150000D01*
X37845161Y-58811365D01*
X39721343Y-53797000D01*
X39883042Y-53797000D01*
X40320698Y-53709945D01*
X40313147Y-57704839D01*
G36*
X96523000Y-50583077D02*
X96416611Y-50423855D01*
X96410842Y-50420000D01*
X96416611Y-50416145D01*
X96523000Y-50256923D01*
X96523000Y-50583077D01*
X96523000Y-50583077D01*
G37*
X96523000Y-50583077D02*
X96416611Y-50423855D01*
X96410842Y-50420000D01*
X96416611Y-50416145D01*
X96523000Y-50256923D01*
X96523000Y-50583077D01*
G36*
X85548977Y-38403741D02*
X85557511Y-40404630D01*
X85551657Y-40407049D01*
X85053607Y-40904231D01*
X84559194Y-40408954D01*
X83851384Y-40115045D01*
X83084979Y-40114376D01*
X82376657Y-40407049D01*
X81834254Y-40948506D01*
X81561191Y-41606113D01*
X81290651Y-40951357D01*
X80749194Y-40408954D01*
X80041384Y-40115045D01*
X79274979Y-40114376D01*
X78566657Y-40407049D01*
X78068607Y-40904231D01*
X77574194Y-40408954D01*
X76866384Y-40115045D01*
X76099979Y-40114376D01*
X75391657Y-40407049D01*
X74849254Y-40948506D01*
X74555345Y-41656316D01*
X74554676Y-42422721D01*
X74847349Y-43131043D01*
X75388806Y-43673446D01*
X76096616Y-43967355D01*
X76863021Y-43968024D01*
X77571343Y-43675351D01*
X78069393Y-43178169D01*
X78563806Y-43673446D01*
X79271616Y-43967355D01*
X80038021Y-43968024D01*
X80746343Y-43675351D01*
X81288746Y-43133894D01*
X81561809Y-42476287D01*
X81832349Y-43131043D01*
X82373806Y-43673446D01*
X83081616Y-43967355D01*
X83597249Y-43967805D01*
X84205690Y-44752726D01*
X84336575Y-44866377D01*
X84459231Y-44988846D01*
X84494318Y-45003349D01*
X84522989Y-45028244D01*
X84687402Y-45083155D01*
X84847589Y-45149365D01*
X90767832Y-46322306D01*
X93089635Y-47166534D01*
X93115235Y-47295233D01*
X93503389Y-47876145D01*
X93509158Y-47880000D01*
X93503389Y-47883855D01*
X93115235Y-48464767D01*
X92978934Y-49150000D01*
X93115235Y-49835233D01*
X93304780Y-50118906D01*
X54449407Y-38551820D01*
X54870000Y-38270789D01*
X55425159Y-38641734D01*
X56105187Y-38777000D01*
X56174813Y-38777000D01*
X56854841Y-38641734D01*
X57410000Y-38270789D01*
X57965159Y-38641734D01*
X58645187Y-38777000D01*
X58714813Y-38777000D01*
X59394841Y-38641734D01*
X59950000Y-38270789D01*
X60505159Y-38641734D01*
X61185187Y-38777000D01*
X61254813Y-38777000D01*
X61934841Y-38641734D01*
X62490000Y-38270789D01*
X63045159Y-38641734D01*
X63725187Y-38777000D01*
X63794813Y-38777000D01*
X64474841Y-38641734D01*
X65030000Y-38270789D01*
X65585159Y-38641734D01*
X66265187Y-38777000D01*
X66334813Y-38777000D01*
X67014841Y-38641734D01*
X67570000Y-38270789D01*
X68125159Y-38641734D01*
X68805187Y-38777000D01*
X68874813Y-38777000D01*
X69554841Y-38641734D01*
X70110000Y-38270789D01*
X70665159Y-38641734D01*
X71345187Y-38777000D01*
X71414813Y-38777000D01*
X72094841Y-38641734D01*
X72650000Y-38270789D01*
X73205159Y-38641734D01*
X73885187Y-38777000D01*
X73954813Y-38777000D01*
X74634841Y-38641734D01*
X75190000Y-38270789D01*
X75745159Y-38641734D01*
X76425187Y-38777000D01*
X76494813Y-38777000D01*
X77174841Y-38641734D01*
X77730000Y-38270789D01*
X78285159Y-38641734D01*
X78965187Y-38777000D01*
X79034813Y-38777000D01*
X79714841Y-38641734D01*
X80270000Y-38270789D01*
X80825159Y-38641734D01*
X81505187Y-38777000D01*
X81574813Y-38777000D01*
X82254841Y-38641734D01*
X82810000Y-38270789D01*
X83365159Y-38641734D01*
X84045187Y-38777000D01*
X84114813Y-38777000D01*
X84794841Y-38641734D01*
X85350000Y-38270789D01*
X85548977Y-38403741D01*
X85548977Y-38403741D01*
G37*
X85548977Y-38403741D02*
X85557511Y-40404630D01*
X85551657Y-40407049D01*
X85053607Y-40904231D01*
X84559194Y-40408954D01*
X83851384Y-40115045D01*
X83084979Y-40114376D01*
X82376657Y-40407049D01*
X81834254Y-40948506D01*
X81561191Y-41606113D01*
X81290651Y-40951357D01*
X80749194Y-40408954D01*
X80041384Y-40115045D01*
X79274979Y-40114376D01*
X78566657Y-40407049D01*
X78068607Y-40904231D01*
X77574194Y-40408954D01*
X76866384Y-40115045D01*
X76099979Y-40114376D01*
X75391657Y-40407049D01*
X74849254Y-40948506D01*
X74555345Y-41656316D01*
X74554676Y-42422721D01*
X74847349Y-43131043D01*
X75388806Y-43673446D01*
X76096616Y-43967355D01*
X76863021Y-43968024D01*
X77571343Y-43675351D01*
X78069393Y-43178169D01*
X78563806Y-43673446D01*
X79271616Y-43967355D01*
X80038021Y-43968024D01*
X80746343Y-43675351D01*
X81288746Y-43133894D01*
X81561809Y-42476287D01*
X81832349Y-43131043D01*
X82373806Y-43673446D01*
X83081616Y-43967355D01*
X83597249Y-43967805D01*
X84205690Y-44752726D01*
X84336575Y-44866377D01*
X84459231Y-44988846D01*
X84494318Y-45003349D01*
X84522989Y-45028244D01*
X84687402Y-45083155D01*
X84847589Y-45149365D01*
X90767832Y-46322306D01*
X93089635Y-47166534D01*
X93115235Y-47295233D01*
X93503389Y-47876145D01*
X93509158Y-47880000D01*
X93503389Y-47883855D01*
X93115235Y-48464767D01*
X92978934Y-49150000D01*
X93115235Y-49835233D01*
X93304780Y-50118906D01*
X54449407Y-38551820D01*
X54870000Y-38270789D01*
X55425159Y-38641734D01*
X56105187Y-38777000D01*
X56174813Y-38777000D01*
X56854841Y-38641734D01*
X57410000Y-38270789D01*
X57965159Y-38641734D01*
X58645187Y-38777000D01*
X58714813Y-38777000D01*
X59394841Y-38641734D01*
X59950000Y-38270789D01*
X60505159Y-38641734D01*
X61185187Y-38777000D01*
X61254813Y-38777000D01*
X61934841Y-38641734D01*
X62490000Y-38270789D01*
X63045159Y-38641734D01*
X63725187Y-38777000D01*
X63794813Y-38777000D01*
X64474841Y-38641734D01*
X65030000Y-38270789D01*
X65585159Y-38641734D01*
X66265187Y-38777000D01*
X66334813Y-38777000D01*
X67014841Y-38641734D01*
X67570000Y-38270789D01*
X68125159Y-38641734D01*
X68805187Y-38777000D01*
X68874813Y-38777000D01*
X69554841Y-38641734D01*
X70110000Y-38270789D01*
X70665159Y-38641734D01*
X71345187Y-38777000D01*
X71414813Y-38777000D01*
X72094841Y-38641734D01*
X72650000Y-38270789D01*
X73205159Y-38641734D01*
X73885187Y-38777000D01*
X73954813Y-38777000D01*
X74634841Y-38641734D01*
X75190000Y-38270789D01*
X75745159Y-38641734D01*
X76425187Y-38777000D01*
X76494813Y-38777000D01*
X77174841Y-38641734D01*
X77730000Y-38270789D01*
X78285159Y-38641734D01*
X78965187Y-38777000D01*
X79034813Y-38777000D01*
X79714841Y-38641734D01*
X80270000Y-38270789D01*
X80825159Y-38641734D01*
X81505187Y-38777000D01*
X81574813Y-38777000D01*
X82254841Y-38641734D01*
X82810000Y-38270789D01*
X83365159Y-38641734D01*
X84045187Y-38777000D01*
X84114813Y-38777000D01*
X84794841Y-38641734D01*
X85350000Y-38270789D01*
X85548977Y-38403741D01*
G36*
X96523000Y-48043077D02*
X96416611Y-47883855D01*
X96410842Y-47880000D01*
X96416611Y-47876145D01*
X96523000Y-47716923D01*
X96523000Y-48043077D01*
X96523000Y-48043077D01*
G37*
X96523000Y-48043077D02*
X96416611Y-47883855D01*
X96410842Y-47880000D01*
X96416611Y-47876145D01*
X96523000Y-47716923D01*
X96523000Y-48043077D01*
G36*
X45136212Y-45502638D02*
X44979304Y-45732279D01*
X44952832Y-45863000D01*
X41386560Y-45863000D01*
X41510696Y-45681321D01*
X41562197Y-45427000D01*
X45087540Y-45427000D01*
X45136212Y-45502638D01*
X45136212Y-45502638D01*
G37*
X45136212Y-45502638D02*
X44979304Y-45732279D01*
X44952832Y-45863000D01*
X41386560Y-45863000D01*
X41510696Y-45681321D01*
X41562197Y-45427000D01*
X45087540Y-45427000D01*
X45136212Y-45502638D01*
G36*
X96523000Y-45503077D02*
X96416611Y-45343855D01*
X96410842Y-45340000D01*
X96416611Y-45336145D01*
X96523000Y-45176923D01*
X96523000Y-45503077D01*
X96523000Y-45503077D01*
G37*
X96523000Y-45503077D02*
X96416611Y-45343855D01*
X96410842Y-45340000D01*
X96416611Y-45336145D01*
X96523000Y-45176923D01*
X96523000Y-45503077D01*
G36*
X96523000Y-39918201D02*
X96343721Y-39795704D01*
X95976000Y-39721239D01*
X93944000Y-39721239D01*
X93600474Y-39785878D01*
X93284967Y-39988901D01*
X93073304Y-40298679D01*
X92998839Y-40666400D01*
X92998839Y-42393600D01*
X93063478Y-42737126D01*
X93266501Y-43052633D01*
X93315013Y-43085780D01*
X93115235Y-43384767D01*
X92978934Y-44070000D01*
X93115235Y-44755233D01*
X93228772Y-44925153D01*
X92141255Y-44529722D01*
X92161666Y-41979319D01*
X92160483Y-41973115D01*
X92161693Y-41966921D01*
X92146967Y-37770729D01*
X92351823Y-37975943D01*
X93427229Y-38422490D01*
X94591662Y-38423507D01*
X95667846Y-37978836D01*
X96491943Y-37156177D01*
X96523000Y-37081383D01*
X96523000Y-39918201D01*
X96523000Y-39918201D01*
G37*
X96523000Y-39918201D02*
X96343721Y-39795704D01*
X95976000Y-39721239D01*
X93944000Y-39721239D01*
X93600474Y-39785878D01*
X93284967Y-39988901D01*
X93073304Y-40298679D01*
X92998839Y-40666400D01*
X92998839Y-42393600D01*
X93063478Y-42737126D01*
X93266501Y-43052633D01*
X93315013Y-43085780D01*
X93115235Y-43384767D01*
X92978934Y-44070000D01*
X93115235Y-44755233D01*
X93228772Y-44925153D01*
X92141255Y-44529722D01*
X92161666Y-41979319D01*
X92160483Y-41973115D01*
X92161693Y-41966921D01*
X92146967Y-37770729D01*
X92351823Y-37975943D01*
X93427229Y-38422490D01*
X94591662Y-38423507D01*
X95667846Y-37978836D01*
X96491943Y-37156177D01*
X96523000Y-37081383D01*
X96523000Y-39918201D01*
G36*
X88445159Y-38641734D02*
X89125187Y-38777000D01*
X89194813Y-38777000D01*
X89874841Y-38641734D01*
X89995728Y-38560960D01*
X90007685Y-41968206D01*
X89991643Y-43972655D01*
X87857152Y-43549762D01*
X88273746Y-43133894D01*
X88567655Y-42426084D01*
X88568324Y-41659679D01*
X88275651Y-40951357D01*
X87734194Y-40408954D01*
X87711508Y-40399534D01*
X87702962Y-38395764D01*
X87890000Y-38270789D01*
X88445159Y-38641734D01*
X88445159Y-38641734D01*
G37*
X88445159Y-38641734D02*
X89125187Y-38777000D01*
X89194813Y-38777000D01*
X89874841Y-38641734D01*
X89995728Y-38560960D01*
X90007685Y-41968206D01*
X89991643Y-43972655D01*
X87857152Y-43549762D01*
X88273746Y-43133894D01*
X88567655Y-42426084D01*
X88568324Y-41659679D01*
X88275651Y-40951357D01*
X87734194Y-40408954D01*
X87711508Y-40399534D01*
X87702962Y-38395764D01*
X87890000Y-38270789D01*
X88445159Y-38641734D01*
G36*
X47331251Y-38325079D02*
X47142470Y-42454839D01*
X45850000Y-42454839D01*
X45506474Y-42519478D01*
X45190967Y-42722501D01*
X44979304Y-43032279D01*
X44950807Y-43173000D01*
X41475559Y-43173000D01*
X41317499Y-42927367D01*
X41007721Y-42715704D01*
X40640000Y-42641239D01*
X38750725Y-42641239D01*
X39572636Y-38668672D01*
X39668679Y-38734296D01*
X40036400Y-38808761D01*
X41763600Y-38808761D01*
X42107126Y-38744122D01*
X42422633Y-38541099D01*
X42470250Y-38471410D01*
X42725159Y-38641734D01*
X43405187Y-38777000D01*
X43474813Y-38777000D01*
X44154841Y-38641734D01*
X44710000Y-38270789D01*
X45265159Y-38641734D01*
X45945187Y-38777000D01*
X46014813Y-38777000D01*
X46694841Y-38641734D01*
X47250000Y-38270789D01*
X47331251Y-38325079D01*
X47331251Y-38325079D01*
G37*
X47331251Y-38325079D02*
X47142470Y-42454839D01*
X45850000Y-42454839D01*
X45506474Y-42519478D01*
X45190967Y-42722501D01*
X44979304Y-43032279D01*
X44950807Y-43173000D01*
X41475559Y-43173000D01*
X41317499Y-42927367D01*
X41007721Y-42715704D01*
X40640000Y-42641239D01*
X38750725Y-42641239D01*
X39572636Y-38668672D01*
X39668679Y-38734296D01*
X40036400Y-38808761D01*
X41763600Y-38808761D01*
X42107126Y-38744122D01*
X42422633Y-38541099D01*
X42470250Y-38471410D01*
X42725159Y-38641734D01*
X43405187Y-38777000D01*
X43474813Y-38777000D01*
X44154841Y-38641734D01*
X44710000Y-38270789D01*
X45265159Y-38641734D01*
X45945187Y-38777000D01*
X46014813Y-38777000D01*
X46694841Y-38641734D01*
X47250000Y-38270789D01*
X47331251Y-38325079D01*
G36*
X39608658Y-33203471D02*
X39223453Y-33779972D01*
X39121770Y-34291169D01*
X38770648Y-34507668D01*
X38494836Y-33840154D01*
X37672177Y-33016057D01*
X37578117Y-32977000D01*
X39947596Y-32977000D01*
X39608658Y-33203471D01*
X39608658Y-33203471D01*
G37*
X39608658Y-33203471D02*
X39223453Y-33779972D01*
X39121770Y-34291169D01*
X38770648Y-34507668D01*
X38494836Y-33840154D01*
X37672177Y-33016057D01*
X37578117Y-32977000D01*
X39947596Y-32977000D01*
X39608658Y-33203471D01*
G36*
X34356154Y-33013164D02*
X33532057Y-33835823D01*
X33477000Y-33968415D01*
X33477000Y-32977000D01*
X34443677Y-32977000D01*
X34356154Y-33013164D01*
X34356154Y-33013164D01*
G37*
X34356154Y-33013164D02*
X33532057Y-33835823D01*
X33477000Y-33968415D01*
X33477000Y-32977000D01*
X34443677Y-32977000D01*
X34356154Y-33013164D01*
G36*
X96523000Y-33908316D02*
X96494836Y-33840154D01*
X95672177Y-33016057D01*
X95578117Y-32977000D01*
X96523000Y-32977000D01*
X96523000Y-33908316D01*
X96523000Y-33908316D01*
G37*
X96523000Y-33908316D02*
X96494836Y-33840154D01*
X95672177Y-33016057D01*
X95578117Y-32977000D01*
X96523000Y-32977000D01*
X96523000Y-33908316D01*
G36*
X92356154Y-33013164D02*
X91923712Y-33444852D01*
X91920964Y-33441113D01*
X91815777Y-33284878D01*
X91797003Y-33272429D01*
X91783664Y-33254277D01*
X91480420Y-32977000D01*
X92443677Y-32977000D01*
X92356154Y-33013164D01*
X92356154Y-33013164D01*
G37*
X92356154Y-33013164D02*
X91923712Y-33444852D01*
X91920964Y-33441113D01*
X91815777Y-33284878D01*
X91797003Y-33272429D01*
X91783664Y-33254277D01*
X91480420Y-32977000D01*
X92443677Y-32977000D01*
X92356154Y-33013164D01*
G36*
X42170000Y-33189211D02*
X41852404Y-32977000D01*
X42487596Y-32977000D01*
X42170000Y-33189211D01*
X42170000Y-33189211D01*
G37*
X42170000Y-33189211D02*
X41852404Y-32977000D01*
X42487596Y-32977000D01*
X42170000Y-33189211D01*
M02*
